…
Having calculated the number of missing calls per genome, we can preview the
sorted table, look at the summary statistics, and draw a histogram.

```R
missing_per_genome

summary(missing_per_genome$n_bad)

qplot(data=missing_per_genome, x=n_bad, geom="histogram", binwidth=1)
```

```
> missing_per_genome
# A tibble: 191 × 2
# Groups:   genome [191]
   genome  n_bad
   <chr>   <int>
 1 CI-5815   242
 2 CI-5603   234
 3 CI-5507   228
 4 CI-5626   227
 5 CI-4990   227
 6 CI-4542    13
 7 CI-4506    12
 8 CI-6226    12
 9 CI-4840    11
10 CI-4995    11
# … with 181 more rows
…
